values (t); cumulée F(t)
0.06869;0.1
0.092988;0.2
0.129516;0.3
0.428181;0.4
0.548116;0.5
0.885476;0.6
1.029925;0.7
1.203325;0.8
1.207233;0.9
1.659029;1
 ;
values (t); cumulée F(t)
0.06869;0.1
0.06869;0.2
0.092988;0.2
0.092988;0.3
0.129516;0.3
0.129516;0.4
0.428181;0.4
0.428181;0.5
0.548116;0.5
0.548116;0.6
0.885476;0.6
0.885476;0.7
1.029925;0.7
1.029925;0.8
1.203325;0.8
1.203325;0.9
1.207233;0.9
1.207233;1
1.659029;1
