q; benefice
0;0
0.01;0.004929
0.02;0.009732
0.03;0.014413
0.04;0.018973
0.05;0.023397
0.06;0.027705
0.07;0.031902
0.08;0.035982
0.09;0.039949
0.1;0.043808
0.11;0.047554
0.12;0.051208
0.13;0.054757
0.14;0.058179
0.15;0.061483
0.16;0.064665
0.17;0.067723
0.18;0.070661
0.19;0.073496
0.2;0.076234
0.21;0.07886
0.22;0.081373
0.23;0.08377
0.24;0.086079
0.25;0.088268
0.26;0.090347
0.27;0.092315
0.28;0.094193
0.29;0.095968
0.3;0.097639
0.31;0.099211
0.32;0.100689
0.33;0.102071
0.34;0.103375
0.35;0.104588
0.36;0.105716
0.37;0.106752
0.38;0.107686
0.39;0.108528
0.4;0.109288
0.41;0.109954
0.42;0.110526
0.43;0.11101
0.44;0.111412
0.45;0.111724
0.46;0.111951
0.47;0.112103
0.48;0.112174
0.49;0.112174
0.5;0.112094
0.51;0.111939
0.52;0.111709
0.53;0.111421
0.54;0.111059
0.55;0.110624
0.56;0.110098
0.57;0.109499
0.58;0.108827
0.59;0.108076
0.6;0.107258
0.61;0.106365
0.62;0.105396
0.63;0.10436
0.64;0.103271
0.65;0.102122
0.66;0.100923
0.67;0.099668
0.68;0.098347
0.69;0.096971
0.7;0.095544
0.71;0.094063
0.72;0.092512
0.73;0.09089
0.74;0.089205
0.75;0.087457
0.76;0.085645
0.77;0.083761
0.78;0.081813
0.79;0.079801
0.8;0.07773
0.81;0.075607
0.82;0.073417
0.83;0.07117
0.84;0.068875
0.85;0.066521
0.86;0.064111
0.87;0.061653
0.88;0.059143
0.89;0.056575
0.9;0.053955
0.91;0.051279
0.92;0.048547
0.93;0.04577
0.94;0.042945
0.95;0.040071
0.96;0.037142
0.97;0.034167
0.98;0.031139
0.99;0.028063
